{
  "project_info": {
    "project_number": "226141598514",
    "firebase_url": "https://shopkut-ad7d2.firebaseio.com",
    "project_id": "shopkut-ad7d2",
    "storage_bucket": "shopkut-ad7d2.appspot.com"
  },
  "client": [
    {
      "client_info": {
        "mobilesdk_app_id": "1:226141598514:android:7deaeff22d345ae3",
        "android_client_info": {
          "package_name": "shopkut.com.shopkut"
        }
      },
      "oauth_client": [
        {
          "client_id": "226141598514-g501qej2urjt8mbhvsnvc4uj9i223bhd.apps.googleusercontent.com",
          "client_type": 1,
          "android_info": {
            "package_name": "shopkut.com.shopkut",
            "certificate_hash": "06239d97d376af72804d86d03b258e8400d5ba1d"
          }
        },
        {
          "client_id": "226141598514-duvnhukki7pss086e888e0inbigk0jk1.apps.googleusercontent.com",
          "client_type": 1,
          "android_info": {
            "package_name": "shopkut.com.shopkut",
            "certificate_hash": "ed3d0a0ea81c1825e058cb0ac3fb9dc45b148f65"
          }
        },
        {
          "client_id": "226141598514-dr19thclt34el0og7p7jsgfs50m2cmqo.apps.googleusercontent.com",
          "client_type": 3
        }
      ],
      "api_key": [
        {
          "current_key": "AIzaSyAwI3PEpsjprFxrcf7noBU6de8aokF2Ehc"
        }
      ],
      "services": {
        "analytics_service": {
          "status": 1
        },
        "appinvite_service": {
          "status": 2,
          "other_platform_oauth_client": [
            {
              "client_id": "226141598514-dr19thclt34el0og7p7jsgfs50m2cmqo.apps.googleusercontent.com",
              "client_type": 3
            }
          ]
        },
        "ads_service": {
          "status": 2
        }
      }
    }
  ],
  "configuration_version": "1"
}